# system info TX_RESET on 2018.09.12.12:38:20
system_info:
name,value
DEVICE,1SG280HU2F50E2VGS3
DEVICE_FAMILY,Stratix 10
GENERATION_ID,0
#
#
# Files generated for TX_RESET on 2018.09.12.12:38:20
files:
filepath,kind,attributes,module,is_top
sim/TX_RESET.vhd,VHDL,CONTAINS_INLINE_CONFIGURATION,TX_RESET,true
altera_xcvr_reset_control_s10_180/sim/altera_std_synchronizer_nocut.v,VERILOG,,altera_xcvr_reset_control_s10,false
altera_xcvr_reset_control_s10_180/sim/alt_xcvr_resync_std.sv,SYSTEM_VERILOG,,altera_xcvr_reset_control_s10,false
altera_xcvr_reset_control_s10_180/sim/altera_xcvr_reset_control_s10.sv,SYSTEM_VERILOG,,altera_xcvr_reset_control_s10,false
altera_xcvr_reset_control_s10_180/sim/alt_xcvr_reset_counter_s10.sv,SYSTEM_VERILOG,,altera_xcvr_reset_control_s10,false
altera_xcvr_reset_control_s10_180/sim/mentor/altera_xcvr_reset_control_s10.sv,SYSTEM_VERILOG_ENCRYPT,MENTOR_SPECIFIC,altera_xcvr_reset_control_s10,false
altera_xcvr_reset_control_s10_180/sim/mentor/alt_xcvr_reset_counter_s10.sv,SYSTEM_VERILOG_ENCRYPT,MENTOR_SPECIFIC,altera_xcvr_reset_control_s10,false
altera_xcvr_reset_control_s10_180/sim/plain_files.txt,OTHER,,altera_xcvr_reset_control_s10,false
altera_xcvr_reset_control_s10_180/sim/mentor_files.txt,OTHER,,altera_xcvr_reset_control_s10,false
altera_xcvr_reset_control_s10_180/sim/cadence_files.txt,OTHER,,altera_xcvr_reset_control_s10,false
altera_xcvr_reset_control_s10_180/sim/synopsys_files.txt,OTHER,,altera_xcvr_reset_control_s10,false
altera_xcvr_reset_control_s10_180/sim/aldec_files.txt,OTHER,,altera_xcvr_reset_control_s10,false
#
# Map from instance-path to kind of module
instances:
instancePath,module
TX_RESET.TX_RESET,altera_xcvr_reset_control_s10
