# system info PLL on 2018.09.12.12:38:19
system_info:
name,value
DEVICE,1SG280HU2F50E2VGS3
DEVICE_FAMILY,Stratix 10
GENERATION_ID,0
#
#
# Files generated for PLL on 2018.09.12.12:38:19
files:
filepath,kind,attributes,module,is_top
sim/PLL.vhd,VHDL,CONTAINS_INLINE_CONFIGURATION,PLL,true
altera_xcvr_cdr_pll_s10_htile_180/sim/alt_xcvr_resync.sv,SYSTEM_VERILOG,,PLL_altera_xcvr_cdr_pll_s10_htile_180_vzmxkfa,false
altera_xcvr_cdr_pll_s10_htile_180/sim/alt_xcvr_arbiter.sv,SYSTEM_VERILOG,,PLL_altera_xcvr_cdr_pll_s10_htile_180_vzmxkfa,false
altera_xcvr_cdr_pll_s10_htile_180/sim/mentor/alt_xcvr_resync.sv,SYSTEM_VERILOG_ENCRYPT,MENTOR_SPECIFIC,PLL_altera_xcvr_cdr_pll_s10_htile_180_vzmxkfa,false
altera_xcvr_cdr_pll_s10_htile_180/sim/mentor/alt_xcvr_arbiter.sv,SYSTEM_VERILOG_ENCRYPT,MENTOR_SPECIFIC,PLL_altera_xcvr_cdr_pll_s10_htile_180_vzmxkfa,false
altera_xcvr_cdr_pll_s10_htile_180/sim/s10_avmm_h.sv,SYSTEM_VERILOG,,PLL_altera_xcvr_cdr_pll_s10_htile_180_vzmxkfa,false
altera_xcvr_cdr_pll_s10_htile_180/sim/altera_xcvr_native_s10_functions_h.sv,SYSTEM_VERILOG, COMMON_SYSTEMVERILOG_PACKAGE=altera_xcvr_native_s10_functions_h,PLL_altera_xcvr_cdr_pll_s10_htile_180_vzmxkfa,false
altera_xcvr_cdr_pll_s10_htile_180/sim/alt_xcvr_pll_rcfg_arb.sv,SYSTEM_VERILOG,,PLL_altera_xcvr_cdr_pll_s10_htile_180_vzmxkfa,false
altera_xcvr_cdr_pll_s10_htile_180/sim/alt_xcvr_pll_embedded_debug.sv,SYSTEM_VERILOG,,PLL_altera_xcvr_cdr_pll_s10_htile_180_vzmxkfa,false
altera_xcvr_cdr_pll_s10_htile_180/sim/alt_xcvr_pll_avmm_csr.sv,SYSTEM_VERILOG,,PLL_altera_xcvr_cdr_pll_s10_htile_180_vzmxkfa,false
altera_xcvr_cdr_pll_s10_htile_180/sim/plain_files.txt,OTHER,,PLL_altera_xcvr_cdr_pll_s10_htile_180_vzmxkfa,false
altera_xcvr_cdr_pll_s10_htile_180/sim/mentor_files.txt,OTHER,,PLL_altera_xcvr_cdr_pll_s10_htile_180_vzmxkfa,false
altera_xcvr_cdr_pll_s10_htile_180/sim/cadence_files.txt,OTHER,,PLL_altera_xcvr_cdr_pll_s10_htile_180_vzmxkfa,false
altera_xcvr_cdr_pll_s10_htile_180/sim/synopsys_files.txt,OTHER,,PLL_altera_xcvr_cdr_pll_s10_htile_180_vzmxkfa,false
altera_xcvr_cdr_pll_s10_htile_180/sim/aldec_files.txt,OTHER,,PLL_altera_xcvr_cdr_pll_s10_htile_180_vzmxkfa,false
altera_xcvr_cdr_pll_s10_htile_180/sim/PLL_altera_xcvr_cdr_pll_s10_htile_180_vzmxkfa.sv,SYSTEM_VERILOG,,PLL_altera_xcvr_cdr_pll_s10_htile_180_vzmxkfa,false
altera_xcvr_cdr_pll_s10_htile_180/sim/alt_xcvr_pll_rcfg_opt_logic_vzmxkfa.sv,SYSTEM_VERILOG,,PLL_altera_xcvr_cdr_pll_s10_htile_180_vzmxkfa,false
#
# Map from instance-path to kind of module
instances:
instancePath,module
PLL.PLL,PLL_altera_xcvr_cdr_pll_s10_htile_180_vzmxkfa
